{
    "app-id" : "com.svineet.LazyTreeStore",
    "runtime" : "org.gnome.Platform",
    "runtime-version" : "master",
    "branch" : "master",
    "sdk" : "org.gnome.Sdk",
    "command" : "lazy_tree_store",
    "tags" : [
        "nightly"
    ],
    "finish-args" : [
        "--share=ipc",
        "--share=network",
        "--socket=x11",
        "--socket=wayland",
        "--socket=ssh-auth",
        "--filesystem=host",
        "--filesystem=xdg-run/dconf",
        "--filesystem=~/.config/dconf:ro",
        "--filesystem=xdg-config/git:ro",
        "--talk-name=ca.desrt.dconf",
        "--talk-name=org.gtk.vfs.*",
        "--env=DCONF_USER_CONFIG_DIR=.config/dconf",
        "--talk-name=org.freedesktop.secrets",
        "--filesystem=xdg-run/keyring"
    ],
    "cleanup" : [
        "/include",
        "/lib/pkgconfig",
        "/share/pkgconfig",
        "/share/aclocal",
        "/man",
        "/share/man",
        "/share/gtk-doc",
        "/share/vala",
        "*.la",
        "*.a"
    ],
    "modules" : [
        {
            "name" : "libssh2",
            "buildsystem" : "cmake",
            "config-opts" : [
                "-DCMAKE_INSTALL_LIBDIR:PATH=/app/lib",
                "-DBUILD_SHARED_LIBS:BOOL=ON"
            ],
            "sources" : [
                {
                    "type" : "git",
                    "url" : "https://github.com/libssh2/libssh2.git",
                    "branch" : "libssh2-1.8.0"
                }
            ]
        },
        {
            "name" : "libgit2",
            "buildsystem" : "cmake",
            "config-opts" : [
                "-DBUILD_SHARED_LIBS:BOOL=ON",
                "-DTHREADSAFE=ON"
            ],
            "sources" : [
                {
                    "type" : "git",
                    "url" : "https://github.com/libgit2/libgit2.git",
                    "branch" : "maint/v0.28"
                }
            ]
        },
        {
            "name" : "libgit2-glib",
            "config-opts" : [
                "--buildtype=debugoptimized"
            ],
            "buildsystem" : "meson",
            "builddir" : true,
            "sources" : [
                {
                    "type" : "git",
                    "url" : "https://gitlab.gnome.org/GNOME/libgit2-glib.git"
                }
            ]
        },
        {
            "name" : "libgee",
            "build-options" : {
                "make-install-args" : [
                    "girdir=/app/share/gir-1.0",
                    "typelibdir=/app/lib/girepository-1.0"
                ]
            },
            "sources" : [
                {
                    "type" : "git",
                    "url" : "https://gitlab.gnome.org/GNOME/libgee.git"
                }
            ]
        },
        {
            "name" : "enchant",
            "cleanup" : [
                "/bin"
            ],
            "sources" : [
                {
                    "type" : "archive",
                    "url" : "https://github.com/AbiWord/enchant/releases/download/enchant-1-6-1/enchant-1.6.1.tar.gz",
                    "sha256" : "bef0d9c0fef2e4e8746956b68e4d6c6641f6b85bd2908d91731efb68eba9e3f5"
                }
            ]
        },
        {
            "name" : "gspell",
            "config-opts" : [
                "--disable-gtk-doc",
                "--disable-gtk-doc-html"
            ],
            "cleanup" : [
                "/bin",
                "/include",
                "/lib/pkgconfig",
                "*.la",
                "/share"
            ],
            "sources" : [
                {
                    "type" : "archive",
                    "url" : "https://download.gnome.org/sources/gspell/1.8/gspell-1.8.1.tar.xz",
                    "sha256" : "819a1d23c7603000e73f5e738bdd284342e0cd345fb0c7650999c31ec741bbe5"
                }
            ]
        },
        {
            "name" : "gtksourceview",
            "buildsystem" : "meson",
            "sources" : [
                {
                    "type" : "git",
                    "url" : "https://gitlab.gnome.org/GNOME/gtksourceview.git"
                }
            ]
        },
        {
            "name" : "libdazzle",
            "config-opts" : [
                "--libdir=/app/lib",
                "--buildtype=debugoptimized"
            ],
            "buildsystem" : "meson",
            "builddir" : true,
            "cleanup" : [
                "/bin"
            ],
            "sources" : [
                {
                    "type" : "git",
                    "url" : "https://gitlab.gnome.org/GNOME/libdazzle.git"
                }
            ]
        },
        {
            "name" : "lazytreestore",
            "buildsystem" : "meson",
            "builddir" : true,
            "sources" : [
                {
                    "type" : "git",
                    "url" : "https://gitlab.gnome.org/svineet/lazytreestore.git"
                }
            ]
        }
    ]
}
